<?xml version="1.0" standalone="no"?>
<!DOCTYPE svg PUBLIC "-//W3C//DTD SVG 20010904//EN"
 "http://www.w3.org/TR/2001/REC-SVG-20010904/DTD/svg10.dtd">
<svg version="1.0" xmlns="http://www.w3.org/2000/svg"
 width="1000.000000pt" height="1024.000000pt" viewBox="0 0 1000.000000 1024.000000"
 preserveAspectRatio="xMidYMid meet">

<g transform="translate(0.000000,1024.000000) scale(0.100000,-0.100000)"
fill="#000000" stroke="none">
<path d="M4520 7944 c-245 -24 -589 -102 -789 -179 -114 -43 -324 -148 -438
-219 -429 -265 -756 -637 -964 -1098 -101 -221 -196 -554 -233 -808 -23 -156
-53 -531 -43 -520 3 3 75 183 161 400 173 434 212 516 327 688 113 171 195
270 353 427 203 202 437 368 661 470 131 60 679 208 905 245 252 41 270 51
511 276 163 152 242 203 362 233 l70 18 -57 22 c-102 38 -217 52 -456 56 -150
3 -273 -1 -370 -11z"/>
<path d="M5720 7865 c-124 -25 -237 -69 -365 -142 -117 -67 -192 -122 -339
-250 -72 -64 -157 -133 -190 -155 -127 -87 -295 -149 -606 -223 -420 -100
-570 -147 -730 -232 -469 -245 -882 -676 -1129 -1173 -285 -575 -316 -1189
-90 -1772 256 -658 883 -1243 1599 -1493 640 -222 1307 -197 1939 72 629 268
1107 713 1395 1298 70 142 139 318 134 342 -2 9 -100 -125 -218 -297 -238
-347 -331 -456 -520 -607 -291 -235 -685 -439 -1035 -537 -123 -34 -310 -72
-430 -87 -129 -17 -453 -17 -575 0 -461 62 -916 272 -1218 565 -137 132 -293
350 -370 516 -90 193 -126 351 -126 545 0 151 13 222 60 325 76 165 226 269
416 287 46 4 65 9 52 13 -42 15 -255 32 -356 29 -60 -3 -108 -3 -108 -2 0 11
90 44 146 54 80 14 186 8 435 -22 l177 -22 -19 -41 c-10 -23 -27 -92 -38 -155
-30 -163 -37 -184 -86 -253 -135 -192 -145 -212 -145 -294 0 -61 44 -120 162
-218 56 -47 114 -102 127 -121 32 -48 64 -162 116 -420 61 -301 54 -274 72
-250 35 46 144 286 163 359 11 44 22 81 23 83 2 2 52 -60 111 -137 59 -77 116
-145 128 -151 15 -8 45 -9 97 -4 118 13 142 11 195 -15 27 -14 93 -67 148
-119 54 -51 98 -87 98 -79 0 26 -32 122 -57 171 -32 64 -95 132 -160 174 -29
18 -53 36 -53 39 0 11 105 -8 185 -33 44 -14 158 -58 252 -99 173 -73 302
-119 311 -109 11 11 -142 146 -242 214 -274 183 -446 230 -559 152 -55 -37
-114 -64 -126 -56 -5 2 -47 58 -94 122 -98 135 -122 160 -308 311 -135 110
-199 173 -246 244 l-25 37 32 53 c48 78 89 127 241 285 75 78 196 219 269 313
l132 172 -23 52 c-13 28 -53 87 -87 130 l-64 79 48 -39 47 -39 -7 30 c-15 62
-65 152 -125 228 -227 282 -799 595 -1198 656 l-118 18 73 12 c131 23 306 -9
516 -95 172 -70 419 -209 494 -278 l24 -21 40 45 c65 73 129 167 149 220 23
60 24 139 4 206 -14 49 -14 49 5 26 56 -68 50 -193 -16 -324 -31 -61 -30 -64
8 -36 127 90 181 208 213 467 8 68 17 126 19 128 2 3 2 -31 -1 -74 -7 -100 7
-163 60 -277 l42 -91 -2 -123 c-2 -71 2 -132 8 -143 5 -11 85 -57 178 -103
162 -82 169 -87 240 -165 69 -76 101 -99 161 -117 73 -21 178 -114 222 -196
34 -65 32 -177 -4 -239 -15 -25 -34 -51 -42 -59 -26 -21 -20 -42 12 -37 107
18 185 94 211 205 13 51 10 154 -4 200 -19 60 61 -21 90 -92 24 -56 19 -152
-10 -213 -13 -29 -22 -53 -19 -53 19 0 86 45 112 74 131 150 31 448 -176 526
-31 12 -124 35 -206 51 -82 16 -160 36 -172 43 -12 8 -59 56 -105 106 -93 101
-146 141 -212 160 l-44 12 77 76 c64 63 86 94 123 172 84 173 125 384 114 584
-4 61 -13 135 -21 164 -12 43 -12 51 -1 42 45 -38 79 -217 68 -367 -3 -43 -3
-76 0 -73 3 3 39 64 81 136 l75 132 11 126 11 127 140 202 c78 111 150 211
161 222 11 11 -21 -61 -70 -160 -188 -377 -188 -422 -3 -618 88 -94 255 -237
424 -363 229 -171 408 -274 478 -274 38 0 148 49 170 77 12 14 9 15 -31 8
l-45 -7 45 42 c34 31 40 40 23 35 -70 -16 -69 -16 -40 0 32 18 26 39 -9 32
-30 -5 -30 0 -2 30 l21 23 -30 0 c-20 0 -44 -11 -65 -27 l-33 -28 19 30 c29
45 46 78 46 93 0 20 -34 14 -74 -13 -20 -14 -38 -25 -39 -25 -1 0 -2 12 -2 28
-1 15 -4 38 -9 50 -7 21 -6 23 14 17 20 -6 21 -5 10 15 -9 17 -19 21 -40 18
-25 -4 -29 -1 -35 29 -5 29 -8 32 -25 23 -19 -10 -19 -9 -4 32 14 41 14 44 -7
61 -21 17 -23 17 -41 0 -19 -17 -20 -17 -13 22 3 22 9 53 12 70 5 26 4 28 -10
17 -13 -11 -23 -4 -72 55 -77 94 -233 328 -294 443 -49 93 -101 231 -101 267
0 10 27 -36 59 -102 69 -140 117 -200 198 -242 51 -27 172 -69 256 -87 l28 -7
-21 -26 c-11 -14 -18 -28 -16 -31 3 -2 26 3 52 12 25 8 50 13 55 10 5 -3 -4
-24 -19 -47 -49 -72 -48 -73 12 -23 l58 50 -7 -42 c-6 -35 -4 -41 8 -36 8 3
18 17 22 31 l6 26 24 -23 c20 -18 22 -27 14 -42 -17 -32 1 -35 26 -5 30 34 39
34 30 0 -6 -24 -5 -25 11 -12 16 12 17 12 11 -3 -20 -51 -19 -52 11 -24 43 40
58 25 26 -26 -19 -29 -23 -43 -15 -51 8 -8 22 0 50 27 28 27 45 37 57 32 15
-6 12 -13 -22 -49 -21 -23 -39 -43 -39 -44 0 -1 -56 18 -124 43 -68 25 -126
42 -130 39 -11 -11 67 -148 200 -350 190 -291 275 -469 349 -731 68 -241 140
-678 140 -844 0 -250 -74 -507 -253 -880 -296 -616 -900 -1078 -1552 -1186
-157 -26 -438 -24 -595 4 -242 44 -329 80 -514 211 -55 39 -105 71 -112 71
-13 0 -73 -70 -104 -123 l-21 -35 87 -41 c408 -195 890 -242 1374 -135 687
153 1371 627 1763 1221 255 386 348 784 334 1428 -6 281 -23 433 -72 623 -62
246 -174 449 -273 499 l-41 20 35 16 c19 10 52 17 74 17 36 0 41 4 59 38 33
65 53 150 53 230 -1 195 -110 344 -427 582 -93 70 -213 167 -265 214 -141 129
-255 178 -475 205 -133 16 -256 12 -385 -14z m598 -166 c90 -31 177 -95 224
-163 15 -22 5 -15 -33 22 -30 28 -58 52 -61 52 -4 0 2 -21 13 -46 24 -53 39
-144 32 -192 -6 -40 -10 -39 -142 25 -188 92 -277 231 -203 316 13 15 25 17
66 11 27 -3 74 -15 104 -25z m801 -668 c-1 -26 -3 -23 -20 34 -8 28 -8 29 6
11 8 -11 15 -31 14 -45z m-413 -229 c8 -5 6 -19 -7 -49 -17 -41 -19 -42 -49
-32 l-30 11 31 39 c32 41 37 43 55 31z m43 -82 c-11 -30 -20 -36 -32 -23 -6 5
30 53 39 53 2 0 -2 -13 -7 -30z m60 -6 c-14 -40 -18 -44 -34 -38 -12 5 -11 11
6 35 26 36 42 38 28 3z m74 -22 c14 -15 15 -21 4 -35 -10 -15 -17 -15 -50 -5
l-38 12 28 22 c34 28 36 28 56 6z m87 -51 c-6 -12 -20 -21 -33 -21 -21 1 -20
2 8 25 33 27 42 26 25 -4z m70 -20 c-12 -23 -29 -35 -37 -27 -7 7 26 46 39 46
5 0 4 -9 -2 -19z m-748 -223 c-7 -7 -12 -8 -12 -2 0 14 12 26 19 19 2 -3 -1
-11 -7 -17z m-2762 -589 c149 -38 296 -129 448 -276 l77 -75 -60 45 c-188 139
-383 247 -547 303 -96 32 -99 34 -48 28 30 -3 89 -15 130 -25z m118 -200 c63
-21 124 -56 172 -98 29 -25 7 -17 -125 45 -88 42 -162 78 -164 80 -8 8 64 -9
117 -27z m12 -149 l25 -8 -25 -1 c-14 0 -32 4 -40 9 -13 9 -13 10 0 9 8 -1 26
-5 40 -9z"/>
<path d="M5056 6148 c-65 -203 -68 -194 61 -224 94 -23 132 -48 211 -141 61
-71 140 -122 188 -122 39 0 115 -21 164 -46 146 -74 199 -210 134 -342 -14
-29 -23 -57 -19 -63 7 -12 35 -14 35 -2 0 4 16 16 36 27 42 22 86 76 102 124
31 89 4 224 -59 303 l-30 38 25 -10 c132 -50 246 -171 270 -286 6 -26 11 -31
27 -27 52 14 68 123 30 208 -26 59 -136 169 -219 219 -128 77 -219 91 -395 61
-48 -9 -92 -13 -97 -10 -5 3 -53 63 -106 133 -122 160 -191 239 -253 292 l-50
41 -55 -173z"/>
<path d="M4242 5458 c45 -59 68 -115 68 -165 0 -50 10 -70 62 -131 40 -47 38
-90 -8 -139 -19 -21 -43 -49 -52 -63 -32 -48 -115 -155 -147 -190 -21 -22 -39
-58 -50 -95 -21 -74 -46 -123 -100 -200 -50 -71 -69 -107 -91 -170 -15 -44
-14 -49 5 -90 14 -30 43 -60 98 -102 79 -60 167 -164 204 -240 11 -23 27 -79
35 -123 13 -76 16 -83 67 -136 52 -54 54 -55 83 -43 16 7 50 28 75 46 26 18
52 33 58 33 6 0 13 11 17 25 3 14 10 25 15 25 5 0 16 -11 25 -25 10 -16 26
-25 42 -25 90 0 304 -103 457 -220 83 -64 214 -191 242 -236 11 -17 12 -16 7
11 -28 132 -147 300 -252 354 -40 21 -16 24 78 11 85 -13 91 -16 119 -50 27
-34 36 -38 108 -50 112 -18 235 -55 332 -101 46 -22 86 -37 89 -34 10 10 -46
77 -108 129 -91 75 -151 109 -260 151 -52 20 -132 54 -177 77 -64 32 -93 41
-137 42 -49 0 -62 -4 -113 -40 -32 -22 -73 -46 -91 -52 -30 -10 -36 -9 -55 12
-12 12 -38 49 -57 81 -37 62 -209 241 -350 365 -145 128 -202 184 -227 223
l-24 38 23 37 c26 43 22 38 95 127 32 39 117 136 190 215 222 244 364 424 363
461 -1 8 -27 42 -58 75 l-57 61 -180 61 c-152 52 -314 92 -372 92 -12 0 -9 -8
9 -32z"/>
<path d="M3198 4653 c-55 -8 -140 -142 -168 -262 -20 -84 -8 -266 24 -376 56
-188 190 -427 354 -631 75 -93 270 -290 279 -281 2 2 -26 82 -63 178 l-66 174
7 126 c8 146 4 159 -72 230 -26 25 -79 74 -117 110 -87 81 -119 143 -119 224
0 82 18 118 106 213 42 44 78 91 81 104 3 13 7 62 9 111 l5 87 -117 -1 c-64
-1 -128 -4 -143 -6z"/>
<path d="M4370 3273 c0 -5 4 -14 9 -21 6 -10 10 -9 14 7 3 14 0 21 -9 21 -8 0
-14 -3 -14 -7z"/>
</g>
</svg>
